.title Diagramme courant-tension d'une Diode

* circuit
R1 Vin Vd 0.01
D1 Vd 0 DIODE
V1 Vin 0 0

* Modele de diode (standard D)
.model DIODE D

* tension V1 varie de -10V a 1.2V avec un pas de 1mv
.dc V1 -10 1.2 1m

* graph du courant du circuit (-i(V1) )sur la tension Vd
* avec definition des limitations des axes, et labels
.control
 run
 plot -i(V1) vs v(Vd) xlimit -10 3 xlabel 'I diode'  ylimit 0 25 ylabel 'V diode '
.endc

.end

