.title Charge du condensateur

* circuit
R1 Vin Vc 100k
C1 Vc 0 1u
V1 Vin 0  dc 0 PULSE (0 10 10m 1u 1u  0.75)

* graph de la tension Vin et de Vcondensateur
.control
  tran 1m 2 0
  plot Vin Vc
.endc


.end

