(kicad_sch (version 20211123) (generator eeschema)

  (uuid 6d6b8d10-dfe8-4538-bf5f-6b64b83a28c2)

  (paper "A4")

  (lib_symbols
    (symbol "Simulation_SPICE:VDC" (pin_numbers hide) (pin_names (offset 0.0254)) (in_bom yes) (on_board yes)
      (property "Reference" "V" (id 0) (at 2.54 2.54 0)
        (effects (font (size 1.27 1.27)) (justify left))
      )
      (property "Value" "VDC" (id 1) (at 2.54 0 0)
        (effects (font (size 1.27 1.27)) (justify left))
      )
      (property "Footprint" "" (id 2) (at 0 0 0)
        (effects (font (size 1.27 1.27)) hide)
      )
      (property "Datasheet" "~" (id 3) (at 0 0 0)
        (effects (font (size 1.27 1.27)) hide)
      )
      (property "Spice_Netlist_Enabled" "Y" (id 4) (at 0 0 0)
        (effects (font (size 1.27 1.27)) (justify left) hide)
      )
      (property "Spice_Primitive" "V" (id 5) (at 0 0 0)
        (effects (font (size 1.27 1.27)) (justify left) hide)
      )
      (property "Spice_Model" "dc(1)" (id 6) (at 2.54 -2.54 0)
        (effects (font (size 1.27 1.27)) (justify left))
      )
      (property "ki_keywords" "simulation" (id 7) (at 0 0 0)
        (effects (font (size 1.27 1.27)) hide)
      )
      (property "ki_description" "Voltage source, DC" (id 8) (at 0 0 0)
        (effects (font (size 1.27 1.27)) hide)
      )
      (symbol "VDC_0_0"
        (polyline
          (pts
            (xy -1.27 0.254)
            (xy 1.27 0.254)
          )
          (stroke (width 0) (type default) (color 0 0 0 0))
          (fill (type none))
        )
        (polyline
          (pts
            (xy -0.762 -0.254)
            (xy -1.27 -0.254)
          )
          (stroke (width 0) (type default) (color 0 0 0 0))
          (fill (type none))
        )
        (polyline
          (pts
            (xy 0.254 -0.254)
            (xy -0.254 -0.254)
          )
          (stroke (width 0) (type default) (color 0 0 0 0))
          (fill (type none))
        )
        (polyline
          (pts
            (xy 1.27 -0.254)
            (xy 0.762 -0.254)
          )
          (stroke (width 0) (type default) (color 0 0 0 0))
          (fill (type none))
        )
        (text "+" (at 0 1.905 0)
          (effects (font (size 1.27 1.27)))
        )
      )
      (symbol "VDC_0_1"
        (circle (center 0 0) (radius 2.54)
          (stroke (width 0.254) (type default) (color 0 0 0 0))
          (fill (type background))
        )
      )
      (symbol "VDC_1_1"
        (pin passive line (at 0 5.08 270) (length 2.54)
          (name "~" (effects (font (size 1.27 1.27))))
          (number "1" (effects (font (size 1.27 1.27))))
        )
        (pin passive line (at 0 -5.08 90) (length 2.54)
          (name "~" (effects (font (size 1.27 1.27))))
          (number "2" (effects (font (size 1.27 1.27))))
        )
      )
    )
    (symbol "pspice:0" (power) (pin_names (offset 0)) (in_bom yes) (on_board yes)
      (property "Reference" "#GND" (id 0) (at 0 -2.54 0)
        (effects (font (size 1.27 1.27)) hide)
      )
      (property "Value" "0" (id 1) (at 0 -1.778 0)
        (effects (font (size 1.27 1.27)))
      )
      (property "Footprint" "" (id 2) (at 0 0 0)
        (effects (font (size 1.27 1.27)) hide)
      )
      (property "Datasheet" "~" (id 3) (at 0 0 0)
        (effects (font (size 1.27 1.27)) hide)
      )
      (property "ki_keywords" "simulation" (id 4) (at 0 0 0)
        (effects (font (size 1.27 1.27)) hide)
      )
      (property "ki_description" "0V reference potential for simulation" (id 5) (at 0 0 0)
        (effects (font (size 1.27 1.27)) hide)
      )
      (symbol "0_0_1"
        (polyline
          (pts
            (xy -1.27 0)
            (xy 0 -1.27)
            (xy 1.27 0)
            (xy -1.27 0)
          )
          (stroke (width 0) (type default) (color 0 0 0 0))
          (fill (type none))
        )
      )
      (symbol "0_1_1"
        (pin power_in line (at 0 0 0) (length 0) hide
          (name "0" (effects (font (size 1.016 1.016))))
          (number "1" (effects (font (size 1.016 1.016))))
        )
      )
    )
    (symbol "pspice:C" (pin_names (offset 0.254)) (in_bom yes) (on_board yes)
      (property "Reference" "C" (id 0) (at 2.54 3.81 90)
        (effects (font (size 1.27 1.27)))
      )
      (property "Value" "C" (id 1) (at 2.54 -3.81 90)
        (effects (font (size 1.27 1.27)))
      )
      (property "Footprint" "" (id 2) (at 0 0 0)
        (effects (font (size 1.27 1.27)) hide)
      )
      (property "Datasheet" "~" (id 3) (at 0 0 0)
        (effects (font (size 1.27 1.27)) hide)
      )
      (property "ki_keywords" "simulation" (id 4) (at 0 0 0)
        (effects (font (size 1.27 1.27)) hide)
      )
      (property "ki_description" "Capacitor symbol for simulation only" (id 5) (at 0 0 0)
        (effects (font (size 1.27 1.27)) hide)
      )
      (symbol "C_0_1"
        (polyline
          (pts
            (xy -3.81 -1.27)
            (xy 3.81 -1.27)
          )
          (stroke (width 0) (type default) (color 0 0 0 0))
          (fill (type none))
        )
        (polyline
          (pts
            (xy -3.81 1.27)
            (xy 3.81 1.27)
          )
          (stroke (width 0) (type default) (color 0 0 0 0))
          (fill (type none))
        )
      )
      (symbol "C_1_1"
        (pin passive line (at 0 6.35 270) (length 5.08)
          (name "~" (effects (font (size 1.016 1.016))))
          (number "1" (effects (font (size 1.016 1.016))))
        )
        (pin passive line (at 0 -6.35 90) (length 5.08)
          (name "~" (effects (font (size 1.016 1.016))))
          (number "2" (effects (font (size 1.016 1.016))))
        )
      )
    )
    (symbol "pspice:R" (pin_numbers hide) (pin_names (offset 0)) (in_bom yes) (on_board yes)
      (property "Reference" "R" (id 0) (at 2.032 0 90)
        (effects (font (size 1.27 1.27)))
      )
      (property "Value" "R" (id 1) (at 0 0 90)
        (effects (font (size 1.27 1.27)))
      )
      (property "Footprint" "" (id 2) (at 0 0 0)
        (effects (font (size 1.27 1.27)) hide)
      )
      (property "Datasheet" "~" (id 3) (at 0 0 0)
        (effects (font (size 1.27 1.27)) hide)
      )
      (property "ki_keywords" "resistor simulation" (id 4) (at 0 0 0)
        (effects (font (size 1.27 1.27)) hide)
      )
      (property "ki_description" "Resistor symbol for simulation only" (id 5) (at 0 0 0)
        (effects (font (size 1.27 1.27)) hide)
      )
      (symbol "R_0_1"
        (rectangle (start -1.016 3.81) (end 1.016 -3.81)
          (stroke (width 0) (type default) (color 0 0 0 0))
          (fill (type none))
        )
      )
      (symbol "R_1_1"
        (pin passive line (at 0 6.35 270) (length 2.54)
          (name "~" (effects (font (size 1.27 1.27))))
          (number "1" (effects (font (size 1.27 1.27))))
        )
        (pin passive line (at 0 -6.35 90) (length 2.54)
          (name "~" (effects (font (size 1.27 1.27))))
          (number "2" (effects (font (size 1.27 1.27))))
        )
      )
    )
  )

  (junction (at 121.92 100.33) (diameter 0) (color 0 0 0 0)
    (uuid 36972872-6135-4187-a4d3-0b63cae0b92d)
  )

  (wire (pts (xy 144.78 95.25) (xy 144.78 100.33))
    (stroke (width 0) (type default) (color 0 0 0 0))
    (uuid 01e4869e-b4e8-47c0-b3eb-d16f11c8b5e1)
  )
  (wire (pts (xy 144.78 62.23) (xy 144.78 59.69))
    (stroke (width 0) (type default) (color 0 0 0 0))
    (uuid 27b074ff-dec2-43fd-91f0-01288663e367)
  )
  (wire (pts (xy 104.14 85.09) (xy 104.14 100.33))
    (stroke (width 0) (type default) (color 0 0 0 0))
    (uuid 3573108a-9743-41f1-963d-5305e05fd0f1)
  )
  (wire (pts (xy 121.92 100.33) (xy 144.78 100.33))
    (stroke (width 0) (type default) (color 0 0 0 0))
    (uuid 429727dc-355c-4ae6-a9da-fa3b74b8029c)
  )
  (wire (pts (xy 144.78 59.69) (xy 104.14 59.69))
    (stroke (width 0) (type default) (color 0 0 0 0))
    (uuid 6ada8005-2c82-4db7-8109-4ba26af83c43)
  )
  (wire (pts (xy 104.14 100.33) (xy 121.92 100.33))
    (stroke (width 0) (type default) (color 0 0 0 0))
    (uuid 78cd498d-2195-450a-9625-0e122939a3b6)
  )
  (wire (pts (xy 104.14 59.69) (xy 104.14 74.93))
    (stroke (width 0) (type default) (color 0 0 0 0))
    (uuid 8f887f8d-b6d0-4aaf-9f1e-362152c5c0c5)
  )
  (wire (pts (xy 144.78 74.93) (xy 144.78 82.55))
    (stroke (width 0) (type default) (color 0 0 0 0))
    (uuid c8994b52-0f63-47c1-b887-216eabcbe200)
  )
  (wire (pts (xy 121.92 100.33) (xy 121.92 105.41))
    (stroke (width 0) (type default) (color 0 0 0 0))
    (uuid f639c59d-a91b-4b5d-83c8-beb1a606077f)
  )

  (label "Vc" (at 144.78 80.01 0)
    (effects (font (size 1.27 1.27)) (justify left bottom))
    (uuid 10b0c491-799a-4056-8385-9fe63b136261)
  )
  (label "Vin" (at 104.14 59.69 0)
    (effects (font (size 1.27 1.27)) (justify left bottom))
    (uuid 25c79db8-07d3-4c54-834b-b47bbf5d16e0)
  )

  (symbol (lib_id "pspice:C") (at 144.78 88.9 0) (unit 1)
    (in_bom yes) (on_board yes) (fields_autoplaced)
    (uuid 081ffa21-0230-4ae1-b6cb-4ad5031b236e)
    (property "Reference" "C1" (id 0) (at 149.86 87.6299 0)
      (effects (font (size 1.27 1.27)) (justify left))
    )
    (property "Value" "1u" (id 1) (at 149.86 90.1699 0)
      (effects (font (size 1.27 1.27)) (justify left))
    )
    (property "Footprint" "" (id 2) (at 144.78 88.9 0)
      (effects (font (size 1.27 1.27)) hide)
    )
    (property "Datasheet" "~" (id 3) (at 144.78 88.9 0)
      (effects (font (size 1.27 1.27)) hide)
    )
    (pin "1" (uuid 63e6cd66-ccb3-4a55-8b1d-272cfa5ca32b))
    (pin "2" (uuid 514e380c-ed27-4bc3-99a0-23e323de6d41))
  )

  (symbol (lib_id "pspice:R") (at 144.78 68.58 0) (unit 1)
    (in_bom yes) (on_board yes) (fields_autoplaced)
    (uuid a8cb3a54-50ac-40f1-9edd-4600aa5a1948)
    (property "Reference" "R1" (id 0) (at 147.32 67.3099 0)
      (effects (font (size 1.27 1.27)) (justify left))
    )
    (property "Value" "100k" (id 1) (at 147.32 69.8499 0)
      (effects (font (size 1.27 1.27)) (justify left))
    )
    (property "Footprint" "" (id 2) (at 144.78 68.58 0)
      (effects (font (size 1.27 1.27)) hide)
    )
    (property "Datasheet" "~" (id 3) (at 144.78 68.58 0)
      (effects (font (size 1.27 1.27)) hide)
    )
    (pin "1" (uuid b830f677-8ab5-47c0-85d8-69ac05e2d4c8))
    (pin "2" (uuid 53d5380c-df6d-4c38-8ddc-37be606ccc83))
  )

  (symbol (lib_id "pspice:0") (at 121.92 105.41 0) (unit 1)
    (in_bom yes) (on_board yes) (fields_autoplaced)
    (uuid be9b4d07-3f37-45a7-8309-82cd732433bc)
    (property "Reference" "#GND01" (id 0) (at 121.92 107.95 0)
      (effects (font (size 1.27 1.27)) hide)
    )
    (property "Value" "0" (id 1) (at 121.92 102.87 0))
    (property "Footprint" "" (id 2) (at 121.92 105.41 0)
      (effects (font (size 1.27 1.27)) hide)
    )
    (property "Datasheet" "~" (id 3) (at 121.92 105.41 0)
      (effects (font (size 1.27 1.27)) hide)
    )
    (pin "1" (uuid 68e4f04f-1d35-4f9a-9cfa-c5a588ca31e4))
  )

  (symbol (lib_id "Simulation_SPICE:VDC") (at 104.14 80.01 0) (unit 1)
    (in_bom yes) (on_board yes) (fields_autoplaced)
    (uuid f41fa06b-e776-4ef2-b662-4a94bb7c7491)
    (property "Reference" "V1" (id 0) (at 107.95 77.2801 0)
      (effects (font (size 1.27 1.27)) (justify left))
    )
    (property "Value" "VDC" (id 1) (at 107.95 79.8201 0)
      (effects (font (size 1.27 1.27)) (justify left))
    )
    (property "Footprint" "" (id 2) (at 104.14 80.01 0)
      (effects (font (size 1.27 1.27)) hide)
    )
    (property "Datasheet" "~" (id 3) (at 104.14 80.01 0)
      (effects (font (size 1.27 1.27)) hide)
    )
    (property "Spice_Netlist_Enabled" "Y" (id 4) (at 104.14 80.01 0)
      (effects (font (size 1.27 1.27)) (justify left) hide)
    )
    (property "Spice_Primitive" "V" (id 5) (at 104.14 80.01 0)
      (effects (font (size 1.27 1.27)) (justify left) hide)
    )
    (property "Spice_Model" "dc  0 PULSE (0 10 10m 1u 1u 0.75  )" (id 6) (at 107.95 82.3601 0)
      (effects (font (size 1.27 1.27)) (justify left))
    )
    (pin "1" (uuid ae942043-fb89-44c1-9be6-7922f9f22acd))
    (pin "2" (uuid 8e4a469a-9e60-4fb7-bd88-b3cd384552ac))
  )

  (sheet_instances
    (path "/" (page "1"))
  )

  (symbol_instances
    (path "/be9b4d07-3f37-45a7-8309-82cd732433bc"
      (reference "#GND01") (unit 1) (value "0") (footprint "")
    )
    (path "/081ffa21-0230-4ae1-b6cb-4ad5031b236e"
      (reference "C1") (unit 1) (value "1u") (footprint "")
    )
    (path "/a8cb3a54-50ac-40f1-9edd-4600aa5a1948"
      (reference "R1") (unit 1) (value "100k") (footprint "")
    )
    (path "/f41fa06b-e776-4ef2-b662-4a94bb7c7491"
      (reference "V1") (unit 1) (value "VDC") (footprint "")
    )
  )
)
