(kicad_sch (version 20211123) (generator eeschema)

  (uuid 6d6b8d10-dfe8-4538-bf5f-6b64b83a28c2)

  (paper "A4")

  (lib_symbols
    (symbol "Simulation_SPICE:VDC" (pin_numbers hide) (pin_names (offset 0.0254)) (in_bom yes) (on_board yes)
      (property "Reference" "V" (id 0) (at 2.54 2.54 0)
        (effects (font (size 1.27 1.27)) (justify left))
      )
      (property "Value" "VDC" (id 1) (at 2.54 0 0)
        (effects (font (size 1.27 1.27)) (justify left))
      )
      (property "Footprint" "" (id 2) (at 0 0 0)
        (effects (font (size 1.27 1.27)) hide)
      )
      (property "Datasheet" "~" (id 3) (at 0 0 0)
        (effects (font (size 1.27 1.27)) hide)
      )
      (property "Spice_Netlist_Enabled" "Y" (id 4) (at 0 0 0)
        (effects (font (size 1.27 1.27)) (justify left) hide)
      )
      (property "Spice_Primitive" "V" (id 5) (at 0 0 0)
        (effects (font (size 1.27 1.27)) (justify left) hide)
      )
      (property "Spice_Model" "dc(1)" (id 6) (at 2.54 -2.54 0)
        (effects (font (size 1.27 1.27)) (justify left))
      )
      (property "ki_keywords" "simulation" (id 7) (at 0 0 0)
        (effects (font (size 1.27 1.27)) hide)
      )
      (property "ki_description" "Voltage source, DC" (id 8) (at 0 0 0)
        (effects (font (size 1.27 1.27)) hide)
      )
      (symbol "VDC_0_0"
        (polyline
          (pts
            (xy -1.27 0.254)
            (xy 1.27 0.254)
          )
          (stroke (width 0) (type default) (color 0 0 0 0))
          (fill (type none))
        )
        (polyline
          (pts
            (xy -0.762 -0.254)
            (xy -1.27 -0.254)
          )
          (stroke (width 0) (type default) (color 0 0 0 0))
          (fill (type none))
        )
        (polyline
          (pts
            (xy 0.254 -0.254)
            (xy -0.254 -0.254)
          )
          (stroke (width 0) (type default) (color 0 0 0 0))
          (fill (type none))
        )
        (polyline
          (pts
            (xy 1.27 -0.254)
            (xy 0.762 -0.254)
          )
          (stroke (width 0) (type default) (color 0 0 0 0))
          (fill (type none))
        )
        (text "+" (at 0 1.905 0)
          (effects (font (size 1.27 1.27)))
        )
      )
      (symbol "VDC_0_1"
        (circle (center 0 0) (radius 2.54)
          (stroke (width 0.254) (type default) (color 0 0 0 0))
          (fill (type background))
        )
      )
      (symbol "VDC_1_1"
        (pin passive line (at 0 5.08 270) (length 2.54)
          (name "~" (effects (font (size 1.27 1.27))))
          (number "1" (effects (font (size 1.27 1.27))))
        )
        (pin passive line (at 0 -5.08 90) (length 2.54)
          (name "~" (effects (font (size 1.27 1.27))))
          (number "2" (effects (font (size 1.27 1.27))))
        )
      )
    )
    (symbol "pspice:0" (power) (pin_names (offset 0)) (in_bom yes) (on_board yes)
      (property "Reference" "#GND" (id 0) (at 0 -2.54 0)
        (effects (font (size 1.27 1.27)) hide)
      )
      (property "Value" "0" (id 1) (at 0 -1.778 0)
        (effects (font (size 1.27 1.27)))
      )
      (property "Footprint" "" (id 2) (at 0 0 0)
        (effects (font (size 1.27 1.27)) hide)
      )
      (property "Datasheet" "~" (id 3) (at 0 0 0)
        (effects (font (size 1.27 1.27)) hide)
      )
      (property "ki_keywords" "simulation" (id 4) (at 0 0 0)
        (effects (font (size 1.27 1.27)) hide)
      )
      (property "ki_description" "0V reference potential for simulation" (id 5) (at 0 0 0)
        (effects (font (size 1.27 1.27)) hide)
      )
      (symbol "0_0_1"
        (polyline
          (pts
            (xy -1.27 0)
            (xy 0 -1.27)
            (xy 1.27 0)
            (xy -1.27 0)
          )
          (stroke (width 0) (type default) (color 0 0 0 0))
          (fill (type none))
        )
      )
      (symbol "0_1_1"
        (pin power_in line (at 0 0 0) (length 0) hide
          (name "0" (effects (font (size 1.016 1.016))))
          (number "1" (effects (font (size 1.016 1.016))))
        )
      )
    )
    (symbol "pspice:R" (pin_numbers hide) (pin_names (offset 0)) (in_bom yes) (on_board yes)
      (property "Reference" "R" (id 0) (at 2.032 0 90)
        (effects (font (size 1.27 1.27)))
      )
      (property "Value" "R" (id 1) (at 0 0 90)
        (effects (font (size 1.27 1.27)))
      )
      (property "Footprint" "" (id 2) (at 0 0 0)
        (effects (font (size 1.27 1.27)) hide)
      )
      (property "Datasheet" "~" (id 3) (at 0 0 0)
        (effects (font (size 1.27 1.27)) hide)
      )
      (property "ki_keywords" "resistor simulation" (id 4) (at 0 0 0)
        (effects (font (size 1.27 1.27)) hide)
      )
      (property "ki_description" "Resistor symbol for simulation only" (id 5) (at 0 0 0)
        (effects (font (size 1.27 1.27)) hide)
      )
      (symbol "R_0_1"
        (rectangle (start -1.016 3.81) (end 1.016 -3.81)
          (stroke (width 0) (type default) (color 0 0 0 0))
          (fill (type none))
        )
      )
      (symbol "R_1_1"
        (pin passive line (at 0 6.35 270) (length 2.54)
          (name "~" (effects (font (size 1.27 1.27))))
          (number "1" (effects (font (size 1.27 1.27))))
        )
        (pin passive line (at 0 -6.35 90) (length 2.54)
          (name "~" (effects (font (size 1.27 1.27))))
          (number "2" (effects (font (size 1.27 1.27))))
        )
      )
    )
  )

  (junction (at 144.78 80.01) (diameter 0) (color 0 0 0 0)
    (uuid 57ddba61-e653-42da-9cb3-4de362a6890c)
  )
  (junction (at 144.78 100.33) (diameter 0) (color 0 0 0 0)
    (uuid 604dba61-3378-4648-92ca-788e75ab80df)
  )
  (junction (at 144.78 59.69) (diameter 0) (color 0 0 0 0)
    (uuid da5e54a8-3561-491f-9b35-30090c33171d)
  )
  (junction (at 167.64 80.01) (diameter 0) (color 0 0 0 0)
    (uuid db6ac050-7074-4611-ad04-0690880f348c)
  )
  (junction (at 163.83 80.01) (diameter 0) (color 0 0 0 0)
    (uuid f4e52013-ecab-43d6-8b3b-c60e8ea34bee)
  )

  (wire (pts (xy 144.78 100.33) (xy 144.78 97.79))
    (stroke (width 0) (type default) (color 0 0 0 0))
    (uuid 01e4869e-b4e8-47c0-b3eb-d16f11c8b5e1)
  )
  (wire (pts (xy 144.78 80.01) (xy 144.78 85.09))
    (stroke (width 0) (type default) (color 0 0 0 0))
    (uuid 0c349ba1-1987-4442-9e19-a80de8fcc1b3)
  )
  (wire (pts (xy 163.83 80.01) (xy 167.64 80.01))
    (stroke (width 0) (type default) (color 0 0 0 0))
    (uuid 100c324d-9e7d-4340-a95d-c04acdabcb8a)
  )
  (wire (pts (xy 167.64 74.93) (xy 167.64 80.01))
    (stroke (width 0) (type default) (color 0 0 0 0))
    (uuid 1e88273c-2a2d-4d94-9f60-5275e20b5ca8)
  )
  (wire (pts (xy 144.78 62.23) (xy 144.78 59.69))
    (stroke (width 0) (type default) (color 0 0 0 0))
    (uuid 27b074ff-dec2-43fd-91f0-01288663e367)
  )
  (wire (pts (xy 144.78 100.33) (xy 167.64 100.33))
    (stroke (width 0) (type default) (color 0 0 0 0))
    (uuid 325f0d51-4455-491b-a92a-eaf741b0292d)
  )
  (wire (pts (xy 104.14 85.09) (xy 104.14 100.33))
    (stroke (width 0) (type default) (color 0 0 0 0))
    (uuid 3573108a-9743-41f1-963d-5305e05fd0f1)
  )
  (wire (pts (xy 144.78 59.69) (xy 167.64 59.69))
    (stroke (width 0) (type default) (color 0 0 0 0))
    (uuid 4e6219c6-ce90-44be-b9b4-a82679afbef0)
  )
  (wire (pts (xy 160.02 80.01) (xy 163.83 80.01))
    (stroke (width 0) (type default) (color 0 0 0 0))
    (uuid 506fbc29-e07d-494c-8459-a9e605d399c2)
  )
  (wire (pts (xy 163.83 80.01) (xy 163.83 83.82))
    (stroke (width 0) (type default) (color 0 0 0 0))
    (uuid 56bbc64b-5050-48e5-af9e-d0856e206867)
  )
  (wire (pts (xy 144.78 59.69) (xy 104.14 59.69))
    (stroke (width 0) (type default) (color 0 0 0 0))
    (uuid 6ada8005-2c82-4db7-8109-4ba26af83c43)
  )
  (wire (pts (xy 144.78 80.01) (xy 152.4 80.01))
    (stroke (width 0) (type default) (color 0 0 0 0))
    (uuid 6e8ac0b0-556c-4067-8e55-ebfbbb188fff)
  )
  (wire (pts (xy 104.14 100.33) (xy 144.78 100.33))
    (stroke (width 0) (type default) (color 0 0 0 0))
    (uuid 78cd498d-2195-450a-9625-0e122939a3b6)
  )
  (wire (pts (xy 167.64 59.69) (xy 167.64 62.23))
    (stroke (width 0) (type default) (color 0 0 0 0))
    (uuid 8d4ccb74-b7d3-43d9-85a6-ea33acd45f3b)
  )
  (wire (pts (xy 104.14 59.69) (xy 104.14 74.93))
    (stroke (width 0) (type default) (color 0 0 0 0))
    (uuid 8f887f8d-b6d0-4aaf-9f1e-362152c5c0c5)
  )
  (wire (pts (xy 167.64 80.01) (xy 167.64 85.09))
    (stroke (width 0) (type default) (color 0 0 0 0))
    (uuid 9db13ddf-c577-4838-b65e-9b17adbda375)
  )
  (wire (pts (xy 167.64 100.33) (xy 167.64 97.79))
    (stroke (width 0) (type default) (color 0 0 0 0))
    (uuid 9e49d4af-1db5-4957-946d-d242656d8ed5)
  )
  (wire (pts (xy 144.78 74.93) (xy 144.78 80.01))
    (stroke (width 0) (type default) (color 0 0 0 0))
    (uuid c8994b52-0f63-47c1-b887-216eabcbe200)
  )

  (text ".dc R4 10 500 1" (at 120.65 50.8 0)
    (effects (font (size 1.27 1.27)) (justify left bottom))
    (uuid dcb88348-c130-4078-83b7-a585d0e8bb30)
  )

  (label "Vin" (at 104.14 59.69 0)
    (effects (font (size 1.27 1.27)) (justify left bottom))
    (uuid 25c79db8-07d3-4c54-834b-b47bbf5d16e0)
  )
  (label "V0" (at 104.14 100.33 0)
    (effects (font (size 1.27 1.27)) (justify left bottom))
    (uuid c3ca6225-4a2b-4a6d-a2ce-2b8c30905e99)
  )
  (label "Vout" (at 146.05 80.01 0)
    (effects (font (size 1.27 1.27)) (justify left bottom))
    (uuid f3c8c536-2823-4207-be76-386ec27c3538)
  )

  (symbol (lib_id "pspice:R") (at 144.78 91.44 0) (unit 1)
    (in_bom yes) (on_board yes) (fields_autoplaced)
    (uuid 8aa096fc-e12f-4d67-a44b-2edcd801335c)
    (property "Reference" "R2" (id 0) (at 147.32 90.1699 0)
      (effects (font (size 1.27 1.27)) (justify left))
    )
    (property "Value" "50" (id 1) (at 147.32 92.7099 0)
      (effects (font (size 1.27 1.27)) (justify left))
    )
    (property "Footprint" "" (id 2) (at 144.78 91.44 0)
      (effects (font (size 1.27 1.27)) hide)
    )
    (property "Datasheet" "~" (id 3) (at 144.78 91.44 0)
      (effects (font (size 1.27 1.27)) hide)
    )
    (pin "1" (uuid 37e3fab9-c48d-402c-8efa-be220ab6b64a))
    (pin "2" (uuid 4718ba75-bfcd-443d-9c8f-31c288b4ca07))
  )

  (symbol (lib_id "pspice:R") (at 167.64 91.44 0) (unit 1)
    (in_bom yes) (on_board yes) (fields_autoplaced)
    (uuid 98a94f99-4fc2-4cd1-954e-5b4a95679802)
    (property "Reference" "R4" (id 0) (at 170.18 90.1699 0)
      (effects (font (size 1.27 1.27)) (justify left))
    )
    (property "Value" "50" (id 1) (at 170.18 92.7099 0)
      (effects (font (size 1.27 1.27)) (justify left))
    )
    (property "Footprint" "" (id 2) (at 167.64 91.44 0)
      (effects (font (size 1.27 1.27)) hide)
    )
    (property "Datasheet" "~" (id 3) (at 167.64 91.44 0)
      (effects (font (size 1.27 1.27)) hide)
    )
    (pin "1" (uuid 03aa8933-3ffe-4e5e-ac21-339e49861442))
    (pin "2" (uuid 4b7fab6f-4d7f-49c3-9030-3bcd6de360c0))
  )

  (symbol (lib_id "pspice:R") (at 144.78 68.58 0) (unit 1)
    (in_bom yes) (on_board yes) (fields_autoplaced)
    (uuid a8cb3a54-50ac-40f1-9edd-4600aa5a1948)
    (property "Reference" "R1" (id 0) (at 147.32 67.3099 0)
      (effects (font (size 1.27 1.27)) (justify left))
    )
    (property "Value" "50" (id 1) (at 147.32 69.8499 0)
      (effects (font (size 1.27 1.27)) (justify left))
    )
    (property "Footprint" "" (id 2) (at 144.78 68.58 0)
      (effects (font (size 1.27 1.27)) hide)
    )
    (property "Datasheet" "~" (id 3) (at 144.78 68.58 0)
      (effects (font (size 1.27 1.27)) hide)
    )
    (pin "1" (uuid b830f677-8ab5-47c0-85d8-69ac05e2d4c8))
    (pin "2" (uuid 53d5380c-df6d-4c38-8ddc-37be606ccc83))
  )

  (symbol (lib_id "pspice:0") (at 163.83 83.82 0) (unit 1)
    (in_bom yes) (on_board yes) (fields_autoplaced)
    (uuid be9b4d07-3f37-45a7-8309-82cd732433bc)
    (property "Reference" "#GND01" (id 0) (at 163.83 86.36 0)
      (effects (font (size 1.27 1.27)) hide)
    )
    (property "Value" "0" (id 1) (at 163.83 81.28 0))
    (property "Footprint" "" (id 2) (at 163.83 83.82 0)
      (effects (font (size 1.27 1.27)) hide)
    )
    (property "Datasheet" "~" (id 3) (at 163.83 83.82 0)
      (effects (font (size 1.27 1.27)) hide)
    )
    (pin "1" (uuid 68e4f04f-1d35-4f9a-9cfa-c5a588ca31e4))
  )

  (symbol (lib_id "Simulation_SPICE:VDC") (at 104.14 80.01 0) (unit 1)
    (in_bom yes) (on_board yes) (fields_autoplaced)
    (uuid f41fa06b-e776-4ef2-b662-4a94bb7c7491)
    (property "Reference" "V1" (id 0) (at 107.95 77.2801 0)
      (effects (font (size 1.27 1.27)) (justify left))
    )
    (property "Value" "VDC" (id 1) (at 107.95 79.8201 0)
      (effects (font (size 1.27 1.27)) (justify left))
    )
    (property "Footprint" "" (id 2) (at 104.14 80.01 0)
      (effects (font (size 1.27 1.27)) hide)
    )
    (property "Datasheet" "~" (id 3) (at 104.14 80.01 0)
      (effects (font (size 1.27 1.27)) hide)
    )
    (property "Spice_Netlist_Enabled" "Y" (id 4) (at 104.14 80.01 0)
      (effects (font (size 1.27 1.27)) (justify left) hide)
    )
    (property "Spice_Primitive" "V" (id 5) (at 104.14 80.01 0)
      (effects (font (size 1.27 1.27)) (justify left) hide)
    )
    (property "Spice_Model" "dc(10)" (id 6) (at 107.95 82.3601 0)
      (effects (font (size 1.27 1.27)) (justify left))
    )
    (pin "1" (uuid ae942043-fb89-44c1-9be6-7922f9f22acd))
    (pin "2" (uuid 8e4a469a-9e60-4fb7-bd88-b3cd384552ac))
  )

  (symbol (lib_id "pspice:R") (at 167.64 68.58 0) (unit 1)
    (in_bom yes) (on_board yes) (fields_autoplaced)
    (uuid fa4c2ba8-bcad-429b-80ca-672221dc0701)
    (property "Reference" "R3" (id 0) (at 170.18 67.3099 0)
      (effects (font (size 1.27 1.27)) (justify left))
    )
    (property "Value" "50" (id 1) (at 170.18 69.8499 0)
      (effects (font (size 1.27 1.27)) (justify left))
    )
    (property "Footprint" "" (id 2) (at 167.64 68.58 0)
      (effects (font (size 1.27 1.27)) hide)
    )
    (property "Datasheet" "~" (id 3) (at 167.64 68.58 0)
      (effects (font (size 1.27 1.27)) hide)
    )
    (pin "1" (uuid 0772fe1f-0eda-402a-8864-ffadf43f5330))
    (pin "2" (uuid 6d3205ef-cd12-4804-a81f-97eaef454b55))
  )

  (sheet_instances
    (path "/" (page "1"))
  )

  (symbol_instances
    (path "/be9b4d07-3f37-45a7-8309-82cd732433bc"
      (reference "#GND01") (unit 1) (value "0") (footprint "")
    )
    (path "/a8cb3a54-50ac-40f1-9edd-4600aa5a1948"
      (reference "R1") (unit 1) (value "50") (footprint "")
    )
    (path "/8aa096fc-e12f-4d67-a44b-2edcd801335c"
      (reference "R2") (unit 1) (value "50") (footprint "")
    )
    (path "/fa4c2ba8-bcad-429b-80ca-672221dc0701"
      (reference "R3") (unit 1) (value "50") (footprint "")
    )
    (path "/98a94f99-4fc2-4cd1-954e-5b4a95679802"
      (reference "R4") (unit 1) (value "50") (footprint "")
    )
    (path "/f41fa06b-e776-4ef2-b662-4a94bb7c7491"
      (reference "V1") (unit 1) (value "VDC") (footprint "")
    )
  )
)
